[
    {
        "list_image_url": "https://bytebucket.org/blastar/belriso/raw/HEAD/products/belriso-tejberizs-csokis-900x900.jpg",
        "details_image_url": "https://bytebucket.org/blastar/belriso/raw/HEAD/products/belriso-tejberizs-csokis-900x900.jpg",
        "details_title": "Belriso 1",
        "details_description": " Etiam efficitur vestibulum quam. Nulla hendrerit orci risus, in aliquam leo placerat ut. In vel leo ultrices metus placerat rutrum et sit amet dolor. Mauris et eleifend felis. Ut feugiat finibus lorem, non sollicitudin dolor pharetra eget. Nullam vel neque a nibh congue eleifend vel quis lacus. Donec posuere ante ultrices urna dignissim maximus. Quisque in felis vitae dolor porta congue id sed arcu. Quisque dictum hendrerit urna a pulvinar. Vivamus commodo magna eros, a sollicitudin massa euismod vitae. Integer purus purus, iaculis eget eleifend non, iaculis nec elit. Suspendisse ut luctus ligula. Sed pretium nunc at lacus tristique consequat. Curabitur in elit odio. Etiam ut nulla congue, elementum felis sed, accumsan augue. In tempor tortor dolor, in dictum dolor eleifend lobortis. In vitae ante at dolor sagittis ultricies. Quisque lorem augue, sodales vel pretium imperdiet, maximus ut velit. Donec eget dignissim ipsum."
    },
   {
        "list_image_url": "https://bytebucket.org/blastar/belriso/raw/HEAD/products/SEZONOWE-OBEN.jpg",
        "details_image_url": "https://bytebucket.org/blastar/belriso/raw/HEAD/products/SEZONOWE-OBEN.jpg",
        "details_title": "Belriso 2",
        "details_description": " Etiam efficitur vestibulum quam. Nulla hendrerit orci risus, in aliquam leo placerat ut. In vel leo ultrices metus placerat rutrum et sit amet dolor. Mauris et eleifend felis. Ut feugiat finibus lorem, non sollicitudin dolor pharetra eget. Nullam vel neque a nibh congue eleifend vel quis lacus. Donec posuere ante ultrices urna dignissim maximus. Quisque in felis vitae dolor porta congue id sed arcu. Quisque dictum hendrerit urna a pulvinar. Vivamus commodo magna eros, a sollicitudin massa euismod vitae. Integer purus purus, iaculis eget eleifend non, iaculis nec elit. Suspendisse ut luctus ligula. Sed pretium nunc at lacus tristique consequat. Curabitur in elit odio. Etiam ut nulla congue, elementum felis sed, accumsan augue. In tempor tortor dolor, in dictum dolor eleifend lobortis. In vitae ante at dolor sagittis ultricies. Quisque lorem augue, sodales vel pretium imperdiet, maximus ut velit. Donec eget dignissim ipsum."
    },
   {
        "list_image_url": "https://bytebucket.org/blastar/belriso/raw/HEAD/products/DESEROWE-OBEN.jpg",
        "details_image_url": "https://bytebucket.org/blastar/belriso/raw/HEAD/products/DESEROWE-OBEN.jpg",
        "details_title": "Belriso 3",
        "details_description": " Etiam efficitur vestibulum quam. Nulla hendrerit orci risus, in aliquam leo placerat ut. In vel leo ultrices metus placerat rutrum et sit amet dolor. Mauris et eleifend felis. Ut feugiat finibus lorem, non sollicitudin dolor pharetra eget. Nullam vel neque a nibh congue eleifend vel quis lacus. Donec posuere ante ultrices urna dignissim maximus. Quisque in felis vitae dolor porta congue id sed arcu. Quisque dictum hendrerit urna a pulvinar. Vivamus commodo magna eros, a sollicitudin massa euismod vitae. Integer purus purus, iaculis eget eleifend non, iaculis nec elit. Suspendisse ut luctus ligula. Sed pretium nunc at lacus tristique consequat. Curabitur in elit odio. Etiam ut nulla congue, elementum felis sed, accumsan augue. In tempor tortor dolor, in dictum dolor eleifend lobortis. In vitae ante at dolor sagittis ultricies. Quisque lorem augue, sodales vel pretium imperdiet, maximus ut velit. Donec eget dignissim ipsum."
    }
]